{"jsonapi":{"version":"1.0"},"meta":{"page":{"offset":0,"limit":1,"total":3873}},"links":{"self":"http://localhost:8090/contents?page%5Blimit%5D=1","last":"http://localhost:8090/contents?page%5Blimit%5D=1&page%5Boffset%5D=3872","next":"http://localhost:8090/contents?page%5Blimit%5D=1&page%5Boffset%5D=1"},"data":[{"type":"contents","id":"b387c8ba8f8560f3c25bb1d3","attributes":{"originId":"13179489","title":"Ungleichungen mit Variablen auf beiden Seiten (mit Klammern)","client":"khanacademy","url":"https://de.khanacademy.org/video/multi-step-inequalities-2","license":["http://creativecommons.org/licenses/by-nc-sa/3.0"],"description":"Sal löst die Ungleichung 5x+7>3(x+1), zeichnet die Lösung auf einer Zahlengerade ein und prüft ein paar Werte, um die Lösung zu bestätigen.","contentType":5501,"creationDate":"2011-02-20T16:40:55.000Z","lastModified":"2016-03-03T20:03:56.000Z","updatedAt":"2017-02-28T13:44:21.570Z","language":"en","subjects":["380"],"tags":["Grundlagen der Algebra","Lineare Gleichungen und Ungleichungen","u10_l2_t2_we2"," Multi-Step"," Inequalities"," CC_6_EE_8"," CC_6_NS_6_c"," CC_6_NS_7_a"," CC_7_EE_4"," CC_39336_A-CED_1"," CC_39336_A-CED_3","Komplexere Ungleichungen lösen"],"restrictions":null,"relatedResources":[{"relationType":"series","originId":"x4f0a8aef"},{"relationType":"prev","originId":"153770149"},{"relationType":"next","originId":"547403341"}],"editorsPick":false},"links":{"self":"http://localhost:8090/contents/b387c8ba8f8560f3c25bb1d3"}}],"included":[]}