{"jsonapi":{"version":"1.0"},"meta":{"page":{"offset":0,"limit":50,"total":332}},"links":{"self":"http://localhost:8090/contents?filter%5Bsubjects%5D=%5B%220%22%5D%2C%5B%22640%22%5D","last":"http://localhost:8090/contents?filter%5Bsubjects%5D=%5B%220%22%5D%2C%5B%22640%22%5D&page%5Boffset%5D=300","next":"http://localhost:8090/contents?filter%5Bsubjects%5D=%5B%220%22%5D%2C%5B%22640%22%5D&page%5Boffset%5D=50"},"data":[{"type":"contents","id":"6fa78140d9e7b50edb84a2dd","attributes":{"originId":"25531","title":"Käse","client":"serlo","url":"https://de.serlo.org/permakultur/verwertung-veredelung-ernteertraegen/verarbeitung/milchprodukte/kaese","license":["https://creativecommons.org/licenses/by-sa/4.0/"],"description":"Für die Käseherstellung lässt man die Milch gerinnen – entweder durch Zitronensäure, Essigsäure oder Milchsäurebakterien (Sauermilchkäse) oder die Zugabe von Lab (Labkäse). Die Eiweißbestandteile der Milch klumpen dabei zusammen, die Molke wird abgeseiht. Dieser Frischkäse kann ...","contentType":55,"lastModified":"2014-06-11T07:57:17.000Z","updatedAt":"2017-02-28T13:45:40.705Z","language":"de-de","subjects":["640"],"targetGroups":null,"tags":["Milchprodukte","Verarbeitung","Verwertung und Veredelung von Ernteerträgen","Nachhaltigkeit"],"restrictions":null,"editorsPick":false},"links":{"self":"http://localhost:8090/contents/6fa78140d9e7b50edb84a2dd"}},{"type":"contents","id":"ce79e20b32abe5840384d62b","attributes":{"originId":"25551","title":"Kleber und Kleister","client":"serlo","url":"https://de.serlo.org/permakultur/verwertung-und-veredelung-von-ernteertraegen/verarbeitung/weitere-produkte/kleber-und-kleister","license":["https://creativecommons.org/licenses/by-sa/4.0/"],"description":"Birkenpech Birkenpech wird aus der Birkenrinde gewonnen. Die Birkenrinde wird bei hohen Temperaturen durch einen Verschwelungsprozess (trockene Destillation) zu Birkenteer und dann zu Birkenpech umgewandelt. Ca. 2 Handvoll Birkenrinde in kleinen Streifen in eine Metalldose mit Stülpdeckel ...","contentType":55,"lastModified":"2014-06-11T11:04:41.000Z","updatedAt":"2017-02-28T13:45:40.705Z","language":"de-de","subjects":["640"],"targetGroups":null,"tags":["Weitere Produkte","Verarbeitung","Verwertung und Veredelung von Ernteerträgen","Nachhaltigkeit"],"restrictions":null,"editorsPick":false},"links":{"self":"http://localhost:8090/contents/ce79e20b32abe5840384d62b"}},{"type":"contents","id":"db467e7dd8059a174ba6bdbb","attributes":{"originId":"26053","title":"Bodenlebewesen und Mikroorganismen","client":"serlo","url":"https://de.serlo.org/permakultur/boden-fruchtbarkeit/bodenbeschaffenheit/bodenlebewesen-mikroorganismen","license":["https://creativecommons.org/licenses/by-sa/4.0/"],"description":"In einer Hand voll Erde gibt es mehr Lebewesen als Menschen auf der ganzen Welt. In der oberen Bodenschicht eines fruchtbaren Bodens leben neben Regenwürmern und vielen andern Kleinstlebewesen pro m² eine Billiarde Bakterien. Ohne diese Kleinstlebewesen könnte der Nährstoffkreislauf nicht ...","contentType":55,"lastModified":"2016-01-28T15:38:49.000Z","updatedAt":"2017-02-28T13:45:40.705Z","language":"de-de","subjects":["640"],"targetGroups":null,"tags":["Bodenbeschaffenheit","Boden und Fruchtbarkeit","Nachhaltigkeit"],"restrictions":null,"editorsPick":false},"links":{"self":"http://localhost:8090/contents/db467e7dd8059a174ba6bdbb"}},{"type":"contents","id":"9520a5105c39f6489f0d5218","attributes":{"originId":"26058","title":"Kompostierung","client":"serlo","url":"https://de.serlo.org/nachhaltigkeit/boden-fruchtbarkeit/bodenfruchtbarkeit-humusaufbau/kompostierung","license":["https://creativecommons.org/licenses/by-sa/4.0/"],"description":"Der Kompost schließt den Stoffkreislauf im Garten. Durch die Verrottung von abgestorbenen Pflanzenteilen und Lebewesen können wir selbst neuen Humus herstellen.So funktioniert ein Komposthaufen Im Komposthaufen werden Pflanzenteile, meist Abfälle wie Kartoffelschalen, Gemüsereste, ...","contentType":55,"lastModified":"2016-12-09T15:17:25.000Z","updatedAt":"2017-02-28T13:45:40.705Z","language":"de-de","subjects":["640"],"targetGroups":null,"tags":["Bodenfruchtbarkeit und Humusaufbau ","Boden und Fruchtbarkeit","Nachhaltigkeit"],"restrictions":null,"editorsPick":false},"links":{"self":"http://localhost:8090/contents/9520a5105c39f6489f0d5218"}},{"type":"contents","id":"abdb70371da2061f4a0dc808","attributes":{"originId":"35139","title":"Die zwölf Prinzipien der Permakultur","client":"serlo","url":"https://de.serlo.org/permakultur/permakultur-grundlagen-zwoelf-prinzipien-permakultur","license":["https://creativecommons.org/licenses/by-sa/4.0/"],"description":"Für die Anlage eines Permakultur-Systems gelten folgende zwölf Grundsätze:1. Beobachte und Handle (Observe and Interact) Zusammenarbeiten mit der Natur – durch sorgfältige Beobachtung natürlicher Abläufe und durchdachtes Zusammenspiel mit den Elementen des neu geschaffenen Systems.2. ...","contentType":55,"lastModified":"2016-03-15T14:41:40.000Z","updatedAt":"2017-02-28T13:45:40.719Z","language":"de-de","subjects":["640"],"targetGroups":null,"tags":["Permakultur Grundlagen","Nachhaltigkeit"],"restrictions":null,"editorsPick":false},"links":{"self":"http://localhost:8090/contents/abdb70371da2061f4a0dc808"}},{"type":"contents","id":"39c6c0c2f95b230a1318844e","attributes":{"originId":"36153","title":"Erdmiete","client":"serlo","url":"https://de.serlo.org/permakultur/verwertung-veredelung-ernteertraegen/lagerung/erdmiete","license":["https://creativecommons.org/licenses/by-sa/4.0/"],"description":"Eine Erdmiete ist eine Konstruktion aus Erde, Stroh und Laub, in der Wintergemüse eingelagert wird.Aufbau An der Stelle, wo die Erdmiete stehen soll, wird zunächst die Grasnarbe entfernt und ein Sandbett bereitet. Darauf kommt Stroh, worin das Lagergemüse gebettet wird. Auch zwischen das ...","contentType":55,"lastModified":"2015-03-05T14:09:05.000Z","updatedAt":"2017-02-28T13:45:40.724Z","language":"de-de","subjects":["640"],"targetGroups":null,"tags":["Lagerung","Verwertung und Veredelung von Ernteerträgen","Nachhaltigkeit"],"restrictions":null,"editorsPick":false},"links":{"self":"http://localhost:8090/contents/39c6c0c2f95b230a1318844e"}},{"type":"contents","id":"c09715b0dee706eda7379de1","attributes":{"originId":"58362","title":"Grundkurs Garten- und Geländeplanung","client":"serlo","url":"https://de.serlo.org/permakultur/anbau-permakulturgarten/gelaende-anbauplanung/grundkurs-garten-gelaendeplanung","license":["https://creativecommons.org/licenses/by-sa/4.0/"],"description":"Bevor wir einen Garten anlegen, sollten wir unser Gelände gut erforschen und kennenlernen. Das hilft uns bei der Planung und der Platzierung der einzelnen Elemente im System Garten.","contentType":50,"lastModified":"2016-06-01T12:48:23.000Z","updatedAt":"2017-02-28T13:45:40.746Z","language":"de-de","subjects":["640"],"targetGroups":null,"tags":["Gelände- und Anbauplanung","Anbau im Permakulturgarten","Nachhaltigkeit"],"restrictions":null,"editorsPick":false},"links":{"self":"http://localhost:8090/contents/c09715b0dee706eda7379de1"}},{"type":"contents","id":"7f75cfb85e45f9b823d53424","attributes":{"originId":"67734","title":"Richtig Düngen","client":"serlo","url":"https://de.serlo.org/nachhaltigkeit/boden-fruchtbarkeit/bodenfruchtbarkeit-humusaufbau/richtig-duengen","license":["https://creativecommons.org/licenses/by-sa/4.0/"],"description":"Dieser Kurs behandelt die wichtigsten Pflanzennährstoffe und hilft bei der Beurteilung, wann welcher Dünger angezeigt ist.","contentType":50,"lastModified":"2017-01-12T15:14:27.000Z","updatedAt":"2017-02-28T13:45:40.747Z","language":"de-de","subjects":["640"],"targetGroups":null,"tags":["Bodenfruchtbarkeit und Humusaufbau ","Boden und Fruchtbarkeit","Nachhaltigkeit","Pflanzenpflege","Anbau im Permakulturgarten"],"restrictions":null,"editorsPick":false},"links":{"self":"http://localhost:8090/contents/7f75cfb85e45f9b823d53424"}},{"type":"contents","id":"8d80dddedd707ca9d07874a9","attributes":{"originId":"69841","title":"Aussaaterde","client":"serlo","url":"https://de.serlo.org/nachhaltigkeit/anbau-permakulturgarten/anzucht-aussaat/aussaaterde","license":["https://creativecommons.org/licenses/by-sa/4.0/"],"description":"Dieser Kurs zeigt in drei schnellen Schritten, wie man Aussaaterde selber machen kann.","contentType":50,"lastModified":"2017-02-28T12:07:26.000Z","updatedAt":"2017-02-28T13:45:40.747Z","language":"de-de","subjects":["640"],"targetGroups":null,"tags":["Anzucht und Aussaat","Anbau im Permakulturgarten","Nachhaltigkeit"],"restrictions":null,"editorsPick":false},"links":{"self":"http://localhost:8090/contents/8d80dddedd707ca9d07874a9"}},{"type":"contents","id":"66d55f905c3581c49f3a574c","attributes":{"originId":"68137","title":"Gießen von Hand","client":"serlo","url":"https://de.serlo.org/nachhaltigkeit/anbau-permakulturgarten/pflanzenpflege/giessen-hand","license":["https://creativecommons.org/licenses/by-sa/4.0/"],"description":"Jede Pflanze braucht Wasser zum Wachsen. Wenn dieser Bedarf nicht durch natürlichen Niederschlag gedeckt wird, müssen wir gießen. Dabei haben verschiedene Pflanzen unterschiedlich große Wasserbedarfe. Viele Gemüsepflanzen brauchen sehr viel Feuchtigkeit, während etwa mediterrane Kräuter ...","contentType":55,"lastModified":"2017-02-23T13:15:30.000Z","updatedAt":"2017-02-28T13:45:40.736Z","language":"de-de","subjects":["640"],"targetGroups":null,"tags":["Pflanzenpflege","Anbau im Permakulturgarten","Nachhaltigkeit"],"restrictions":null,"editorsPick":false},"links":{"self":"http://localhost:8090/contents/66d55f905c3581c49f3a574c"}},{"type":"contents","id":"ecae671c420e493621a1b6db","attributes":{"originId":"34278","title":"Testkurs","client":"serlo","url":"https://de.serlo.org/permakultur/sonstiges/rumprobiere-sandbox-playground/testkurs","license":["https://creativecommons.org/licenses/by-sa/4.0/"],"description":"Beschreibung vom Testkurs","contentType":50,"lastModified":"2015-02-01T15:53:06.000Z","updatedAt":"2017-02-28T13:45:40.742Z","language":"de-de","subjects":["640"],"targetGroups":null,"tags":["Rumprobiere - Sandbox - Playground","Sonstiges","Nachhaltigkeit"],"restrictions":null,"editorsPick":false},"links":{"self":"http://localhost:8090/contents/ecae671c420e493621a1b6db"}},{"type":"contents","id":"c98078db23dc0d7922ab228b","attributes":{"originId":"39330","title":"39330","client":"serlo","url":"https://de.serlo.org/permakultur/boden-fruchtbarkeit/bodenbeschaffenheit/39330","license":["https://creativecommons.org/licenses/by-sa/4.0/"],"description":"Was kreucht und fleucht im Boden? Vergleiche das Bodenleben in der Erde an verschiedenen Orten. Entnimm dazu Erde von einer ca. 10 x 10 cm großen Fläche, grabe etwa 10 cm tief. Untersuche z.B. die Erde: auf einem Grünstreifen an der Straße in einem Gemüsebeet aus dem Kompost in einem ...","contentType":79,"lastModified":"2015-11-06T12:31:25.000Z","updatedAt":"2017-02-28T13:45:40.819Z","language":"de-de","subjects":["640"],"targetGroups":null,"tags":["Bodenbeschaffenheit","Boden und Fruchtbarkeit","Nachhaltigkeit"],"restrictions":null,"editorsPick":false},"links":{"self":"http://localhost:8090/contents/c98078db23dc0d7922ab228b"}},{"type":"contents","id":"b637789122eabeddab63fdcf","attributes":{"originId":"66173","title":"66173","client":"serlo","url":"https://de.serlo.org/nachhaltigkeit/boden-fruchtbarkeit/bodenbeschaffenheit/66173","license":["https://creativecommons.org/licenses/by-sa/4.0/"],"description":"Bodentyp bestimmen I - Die Fingerprobe Finde heraus, welchen Bodentyp du auf deinem Gelände hast. Entferne alle größeren Bestandteile wie Steine, Pflanzenwurzeln, etc, so dass nur die sog. Feinerde (Teilchengröße unter 2 mm) übrigbleibt. Gib ein wenig Wasser dazu, so dass du ...","contentType":79,"lastModified":"2016-12-02T12:14:15.000Z","updatedAt":"2017-02-28T13:45:40.839Z","language":"de-de","subjects":["640"],"targetGroups":null,"tags":["Bodenbeschaffenheit","Boden und Fruchtbarkeit","Nachhaltigkeit"],"restrictions":null,"editorsPick":false},"links":{"self":"http://localhost:8090/contents/b637789122eabeddab63fdcf"}},{"type":"contents","id":"44c8b7fe260048d3524e0b8a","attributes":{"originId":"48753","title":"48753","client":"serlo","url":"https://de.serlo.org/permakultur/permakultur-grundlagen/48753","license":["https://creativecommons.org/licenses/by-sa/4.0/"],"description":"Woher kommt der Begriff \"Permakultur\"? Wähle die richtige Antwort aus folgenden drei Alternativen:","contentType":79,"lastModified":"2016-03-23T09:15:43.000Z","updatedAt":"2017-02-28T13:45:40.825Z","language":"de-de","subjects":["640"],"targetGroups":null,"tags":["Permakultur Grundlagen","Nachhaltigkeit"],"restrictions":null,"editorsPick":false},"links":{"self":"http://localhost:8090/contents/44c8b7fe260048d3524e0b8a"}},{"type":"contents","id":"0b0eda9b124954f2675748d4","attributes":{"originId":"51384","title":"Pflanzzeiten","client":"serlo","url":"https://de.serlo.org/permakultur/anbau-permakulturgarten/anzucht-aussaat/pflanzzeiten","license":["https://creativecommons.org/licenses/by-sa/4.0/"],"description":"Verschiedene Pflanzen keimen und wachsen zu unterschiedlichen Zeiten. Bei der Anzucht von Jungpflanzen ist es daher wichtig, dem richtigen Zeitplan zu folgen. Wann ist was zu tun? Anzucht: Wärmeliebende und langsam wachsende Arten werden im Warmen vorgezogen. Kohlrabi und Paprika werden ...","contentType":55,"lastModified":"2016-03-02T09:07:36.000Z","updatedAt":"2017-02-28T13:45:40.729Z","language":"de-de","subjects":["640"],"targetGroups":null,"tags":["Anzucht und Aussaat","Anbau im Permakulturgarten","Nachhaltigkeit"],"restrictions":null,"editorsPick":false},"links":{"self":"http://localhost:8090/contents/0b0eda9b124954f2675748d4"}}],"included":[]}